{
    "status": "success",
    "data": {
        "id": "5",
        "employee_name": "Airi Satou",
        "employee_salary": "162700",
        "employee_age": "33",
        "profile_image": ""
    }
}